{
    "package": "me.jellysquid.mods.sodium.mixin",
    "required": true,
    "compatibilityLevel": "JAVA_8",
    "plugin": "me.jellysquid.mods.sodium.mixin.SodiumMixinPlugin",
    "injectors": {
        "defaultRequire": 1
    },
    "client": [
        "chunk_building.MixinChunkData",
        "chunk_building.MixinRebuildTask",
        "chunk_building.MixinBufferBuilder",
        "chunk_occlusion.MixinChunkOcclusionData",
        "chunk_rendering.MixinClientChunkManager",
        "chunk_rendering.MixinVertexFormat",
        "chunk_rendering.MixinWorldRenderer",
        "models.MixinMultipartBakedModel",
        "options.MixinGameOptions",
        "options.MixinInGameHud",
        "options.MixinRenderLayers",
        "options.MixinSettingsScreen",
        "options.MixinWorldRenderer",
        "pipeline.MixinBakedQuad",
        "pipeline.MixinBufferBuilder",
        "render.fast_block_cache.MixinChunkRendererRegion",
        "render.reduce_matrix_allocs.MixinMatrixStack",
        "render_layers.MixinRenderLayers"
    ]
}